^C:\USERS\KANSASCITYSHUFFLE\SOURCE\REPOS\19\DEBUG\MAIN.OBJ
C:\USERS\KANSASCITYSHUFFLE\SOURCE\REPOS\19\DEBUG\19.EXE
C:\USERS\KANSASCITYSHUFFLE\SOURCE\REPOS\19\DEBUG\19.ILK
C:\USERS\KANSASCITYSHUFFLE\SOURCE\REPOS\19\DEBUG\19.PDB
